{
	"level":{
		"title":"Level 1",
        "field_size":[10,20],
        "frame_size":[240,480],
		"data":"lhhhhhhhhr
                ttssssssst
		        vvstststsv
		        vvsvsvsvsv
		        vbsvgvsvsv
		        vssvsvsvsv
		        vtsvsvsbsv
		        vvsvsvsssv
		        vvsvgvstsv
		        vbsbsbsbsv
		        vssssspssv
                vslhhhhrsv
                vsssssstsv
                vslhhrsvsv
                vssssssvsv
                vslhhrsvsv
                vssssssvsv
                vslhhrsbsv
                bssssssssb
                lhhhhhhhhr"
	},
	"sprites":
	{
        "s":{"filename":"pacman_sprites.png","frame":[256,137,16,16]},
		"g":{"filename":"pacman_sprites.png","frame":[122,162,16,16]},
        "v":{"filename":"pacman_sprites.png","frame":[465,113,16,16]},
        "t":{"filename":"pacman_sprites.png","frame":[465,105,16,16]},
        "b":{"filename":"pacman_sprites.png","frame":[601,102,16,16]},
        "h":{"filename":"pacman_sprites.png","frame":[395,107,16,16]},
        "l":{"filename":"pacman_sprites.png","frame":[379,107,16,16]},
        "r":{"filename":"pacman_sprites.png","frame":[444,107,16,16]},
        "p":{"filename":"pacman_sprites.png","frame":[281,0,  35,35]},        
        "T":{"filename":"pacman_sprites.png","frame":[601,91, 16,16]}
	}
}